module api-logging-dashboard

go 1.17

require (
	github.com/deepmap/oapi-codegen v1.8.2 // indirect
	github.com/gin-contrib/sse v0.1.0 // indirect
	github.com/gin-gonic/gin v1.7.7 // indirect
	github.com/go-playground/locales v0.14.0 // indirect
	github.com/go-playground/universal-translator v0.18.0 // indirect
	github.com/go-playground/validator/v10 v10.10.0 // indirect
	github.com/golang/protobuf v1.5.2 // indirect
	github.com/influxdata/influxdb-client-go/v2 v2.7.0 // indirect
	github.com/influxdata/line-protocol v0.0.0-20200327222509-2487e7298839 // indirect
	github.com/joho/godotenv v1.4.0 // indirect
	github.com/json-iterator/go v1.1.12 // indirect
	github.com/leodido/go-urn v1.2.1 // indirect
	github.com/mattn/go-isatty v0.0.14 // indirect
	github.com/modern-go/concurrent v0.0.0-20180306012644-bacd9c7ef1dd // indirect
	github.com/modern-go/reflect2 v1.0.2 // indirect
	github.com/pkg/errors v0.9.1 // indirect
	github.com/ugorji/go/codec v1.2.6 // indirect
	golang.org/x/crypto v0.0.0-20220128200615-198e4374d7ed // indirect
	golang.org/x/net v0.0.0-20211112202133-69e39bad7dc2 // indirect
	golang.org/x/sys v0.0.0-20220128215802-99c3d69c2c27 // indirect
	golang.org/x/text v0.3.7 // indirect
	google.golang.org/protobuf v1.27.1 // indirect
	gopkg.in/yaml.v2 v2.4.0 // indirect
)
